{
  "@quasar/testing": {
    "harnesses": ["unit-vitest@alpha", "e2e-cypress@beta"]
  },
  "@quasar/testing-unit-vitest": {
    "options": ["scripts", "typescript", "ui"]
  },
  "@quasar/testing-e2e-cypress": {
    "options": ["scripts", "typescript", "code-coverage"]
  }
}
